Text Mining Doc
…
Text Mining Doc

Niccolò Salvini

A few first tidy text mining examples

## # A tibble: 73,422 x 4
##    text                    book                 line chapter
##    <chr>                   <fct>               <int>   <int>
##  1 "SENSE AND SENSIBILITY" Sense & Sensibility     1       0
##  2 ""                      Sense & Sensibility     2       0
##  3 "by Jane Austen"        Sense & Sensibility     3       0
##  4 ""                      Sense & Sensibility     4       0
##  5 "(1811)"                Sense & Sensibility     5       0
##  6 ""                      Sense & Sensibility     6       0
##  7 ""                      Sense & Sensibility     7       0
##  8 ""                      Sense & Sensibility     8       0
##  9 ""                      Sense & Sensibility     9       0
## 10 "CHAPTER 1"             Sense & Sensibility    10       1
## # ... with 73,412 more rows

## # A tibble: 725,055 x 4
##    book                 line chapter word       
##    <fct>               <int>   <int> <chr>      
##  1 Sense & Sensibility     1       0 sense      
##  2 Sense & Sensibility     1       0 and        
##  3 Sense & Sensibility     1       0 sensibility
##  4 Sense & Sensibility     3       0 by         
##  5 Sense & Sensibility     3       0 jane       
##  6 Sense & Sensibility     3       0 austen     
##  7 Sense & Sensibility     5       0 1811       
##  8 Sense & Sensibility    10       1 chapter    
##  9 Sense & Sensibility    10       1 1          
## 10 Sense & Sensibility    13       1 the        
## # ... with 725,045 more rows

## # A tibble: 668 x 2
##    word         n
##    <chr>    <int>
##  1 well       401
##  2 good       359
##  3 great      264
##  4 like       200
##  5 better     173
##  6 enough     129
##  7 happy      125
##  8 love       117
##  9 pleasure   115
## 10 right       92
## # ... with 658 more rows
…
Most common positive and negative words

## # A tibble: 2,585 x 3
##    word     sentiment     n
##    <chr>    <chr>     <int>
##  1 miss     negative   1855
##  2 well     positive   1523
##  3 good     positive   1380
##  4 great    positive    981
##  5 like     positive    725
##  6 better   positive    639
##  7 enough   positive    613
##  8 happy    positive    534
##  9 love     positive    495
## 10 pleasure positive    462
## # ... with 2,575 more rows
…
